{
  "total": 32,
  "per_page": 10,
  "current_page": 1,
  "last_page": 4,
  "collection": [
    {
      "id": 9945,
      "profile_photo_id": null,
      "owner_industry_entity_id": null,
      "owner_industry_member_id": null,
      "type": "photo",
      "resource": "http://mj-files.s3.amazonaws.com/42c59bcc5efc9d548bf943b7eccaae3c.jpg",
      "provider": null,
      "name": null,
      "description": "",
      "slug": "1600",
      "is_active": 1,
      "created_at": "08-Oct-2012 6:00am",
      "updated_at": "23-Apr-2013 12:05am",
      "old_id": 273,
      "old_table": "core_photos",
      "play_count": 0,
      "previous_play_count": 0,
      "weight": null,
      "metadata": {
        "creator_id": null,
        "thumb": null
      },
      "profile_photo": null,
      "tags": [],
      "formats": {
        "micro": "http://thumbor.musejam.com/unsafe/100x100/smart/http://mj-files.s3.amazonaws.com/42c59bcc5efc9d548bf943b7eccaae3c.jpg",
        "thumb": "http://thumbor.musejam.com/unsafe/250x250/smart/http://mj-files.s3.amazonaws.com/42c59bcc5efc9d548bf943b7eccaae3c.jpg",
        "rectangle": "http://thumbor.musejam.com/unsafe/468x181/smart/http://mj-files.s3.amazonaws.com/42c59bcc5efc9d548bf943b7eccaae3c.jpg",
        "home-rectangle": "http://thumbor.musejam.com/unsafe/468x250/smart/http://mj-files.s3.amazonaws.com/42c59bcc5efc9d548bf943b7eccaae3c.jpg",
        "video-rectangle": "http://thumbor.musejam.com/unsafe/215x170/smart/http://mj-files.s3.amazonaws.com/42c59bcc5efc9d548bf943b7eccaae3c.jpg",
        "profile": "http://thumbor.musejam.com/unsafe/300x300/smart/http://mj-files.s3.amazonaws.com/42c59bcc5efc9d548bf943b7eccaae3c.jpg",
        "feed-small": "http://thumbor.musejam.com/unsafe/255x255/smart/http://mj-files.s3.amazonaws.com/42c59bcc5efc9d548bf943b7eccaae3c.jpg",
        "feed-rectangle": "http://thumbor.musejam.com/unsafe/540x181/smart/http://mj-files.s3.amazonaws.com/42c59bcc5efc9d548bf943b7eccaae3c.jpg",
        "mj-feed-artist": "http://thumbor.musejam.com/unsafe/167x167/smart/http://mj-files.s3.amazonaws.com/42c59bcc5efc9d548bf943b7eccaae3c.jpg"
      },
      "is_mused": false,
      "musers": 0
    },
    {
      "id": 9946,
      "profile_photo_id": null,
      "owner_industry_entity_id": null,
      "owner_industry_member_id": null,
      "type": "photo",
      "resource": "http://mj-files.s3.amazonaws.com/daa210bf06c7be0bd1116966526f1735.jpg",
      "provider": null,
      "name": null,
      "description": "",
      "slug": "1601",
      "is_active": 1,
      "created_at": "08-Oct-2012 6:00am",
      "updated_at": "23-Apr-2013 12:09am",
      "old_id": 274,
      "old_table": "core_photos",
      "play_count": 0,
      "previous_play_count": 0,
      "weight": null,
      "metadata": {
        "creator_id": null,
        "thumb": null
      },
      "profile_photo": null,
      "tags": [],
      "formats": {
        "micro": "http://thumbor.musejam.com/unsafe/100x100/smart/http://mj-files.s3.amazonaws.com/daa210bf06c7be0bd1116966526f1735.jpg",
        "thumb": "http://thumbor.musejam.com/unsafe/250x250/smart/http://mj-files.s3.amazonaws.com/daa210bf06c7be0bd1116966526f1735.jpg",
        "rectangle": "http://thumbor.musejam.com/unsafe/468x181/smart/http://mj-files.s3.amazonaws.com/daa210bf06c7be0bd1116966526f1735.jpg",
        "home-rectangle": "http://thumbor.musejam.com/unsafe/468x250/smart/http://mj-files.s3.amazonaws.com/daa210bf06c7be0bd1116966526f1735.jpg",
        "video-rectangle": "http://thumbor.musejam.com/unsafe/215x170/smart/http://mj-files.s3.amazonaws.com/daa210bf06c7be0bd1116966526f1735.jpg",
        "profile": "http://thumbor.musejam.com/unsafe/300x300/smart/http://mj-files.s3.amazonaws.com/daa210bf06c7be0bd1116966526f1735.jpg",
        "feed-small": "http://thumbor.musejam.com/unsafe/255x255/smart/http://mj-files.s3.amazonaws.com/daa210bf06c7be0bd1116966526f1735.jpg",
        "feed-rectangle": "http://thumbor.musejam.com/unsafe/540x181/smart/http://mj-files.s3.amazonaws.com/daa210bf06c7be0bd1116966526f1735.jpg",
        "mj-feed-artist": "http://thumbor.musejam.com/unsafe/167x167/smart/http://mj-files.s3.amazonaws.com/daa210bf06c7be0bd1116966526f1735.jpg"
      },
      "is_mused": false,
      "musers": 0
    },
    {
      "id": 9947,
      "profile_photo_id": null,
      "owner_industry_entity_id": null,
      "owner_industry_member_id": null,
      "type": "photo",
      "resource": "http://mj-files.s3.amazonaws.com/fb9502ab130c5c9d3013d2c2571ff03c.jpg",
      "provider": null,
      "name": null,
      "description": "",
      "slug": "1602",
      "is_active": 1,
      "created_at": "08-Oct-2012 6:00am",
      "updated_at": "08-Oct-2012 6:00am",
      "old_id": 275,
      "old_table": "core_photos",
      "play_count": 0,
      "previous_play_count": 0,
      "weight": null,
      "metadata": {
        "creator_id": null,
        "thumb": null
      },
      "profile_photo": null,
      "tags": [],
      "formats": {
        "micro": "http://thumbor.musejam.com/unsafe/100x100/smart/http://mj-files.s3.amazonaws.com/fb9502ab130c5c9d3013d2c2571ff03c.jpg",
        "thumb": "http://thumbor.musejam.com/unsafe/250x250/smart/http://mj-files.s3.amazonaws.com/fb9502ab130c5c9d3013d2c2571ff03c.jpg",
        "rectangle": "http://thumbor.musejam.com/unsafe/468x181/smart/http://mj-files.s3.amazonaws.com/fb9502ab130c5c9d3013d2c2571ff03c.jpg",
        "home-rectangle": "http://thumbor.musejam.com/unsafe/468x250/smart/http://mj-files.s3.amazonaws.com/fb9502ab130c5c9d3013d2c2571ff03c.jpg",
        "video-rectangle": "http://thumbor.musejam.com/unsafe/215x170/smart/http://mj-files.s3.amazonaws.com/fb9502ab130c5c9d3013d2c2571ff03c.jpg",
        "profile": "http://thumbor.musejam.com/unsafe/300x300/smart/http://mj-files.s3.amazonaws.com/fb9502ab130c5c9d3013d2c2571ff03c.jpg",
        "feed-small": "http://thumbor.musejam.com/unsafe/255x255/smart/http://mj-files.s3.amazonaws.com/fb9502ab130c5c9d3013d2c2571ff03c.jpg",
        "feed-rectangle": "http://thumbor.musejam.com/unsafe/540x181/smart/http://mj-files.s3.amazonaws.com/fb9502ab130c5c9d3013d2c2571ff03c.jpg",
        "mj-feed-artist": "http://thumbor.musejam.com/unsafe/167x167/smart/http://mj-files.s3.amazonaws.com/fb9502ab130c5c9d3013d2c2571ff03c.jpg"
      },
      "is_mused": false,
      "musers": 0
    },
    {
      "id": 9948,
      "profile_photo_id": null,
      "owner_industry_entity_id": null,
      "owner_industry_member_id": null,
      "type": "photo",
      "resource": "http://mj-files.s3.amazonaws.com/2843d64798afd482b7500be1562aebed.jpg",
      "provider": null,
      "name": null,
      "description": "",
      "slug": "1603",
      "is_active": 1,
      "created_at": "08-Oct-2012 6:00am",
      "updated_at": "08-Oct-2012 6:00am",
      "old_id": 276,
      "old_table": "core_photos",
      "play_count": 0,
      "previous_play_count": 0,
      "weight": null,
      "metadata": {
        "creator_id": null,
        "thumb": null
      },
      "profile_photo": null,
      "tags": [],
      "formats": {
        "micro": "http://thumbor.musejam.com/unsafe/100x100/smart/http://mj-files.s3.amazonaws.com/2843d64798afd482b7500be1562aebed.jpg",
        "thumb": "http://thumbor.musejam.com/unsafe/250x250/smart/http://mj-files.s3.amazonaws.com/2843d64798afd482b7500be1562aebed.jpg",
        "rectangle": "http://thumbor.musejam.com/unsafe/468x181/smart/http://mj-files.s3.amazonaws.com/2843d64798afd482b7500be1562aebed.jpg",
        "home-rectangle": "http://thumbor.musejam.com/unsafe/468x250/smart/http://mj-files.s3.amazonaws.com/2843d64798afd482b7500be1562aebed.jpg",
        "video-rectangle": "http://thumbor.musejam.com/unsafe/215x170/smart/http://mj-files.s3.amazonaws.com/2843d64798afd482b7500be1562aebed.jpg",
        "profile": "http://thumbor.musejam.com/unsafe/300x300/smart/http://mj-files.s3.amazonaws.com/2843d64798afd482b7500be1562aebed.jpg",
        "feed-small": "http://thumbor.musejam.com/unsafe/255x255/smart/http://mj-files.s3.amazonaws.com/2843d64798afd482b7500be1562aebed.jpg",
        "feed-rectangle": "http://thumbor.musejam.com/unsafe/540x181/smart/http://mj-files.s3.amazonaws.com/2843d64798afd482b7500be1562aebed.jpg",
        "mj-feed-artist": "http://thumbor.musejam.com/unsafe/167x167/smart/http://mj-files.s3.amazonaws.com/2843d64798afd482b7500be1562aebed.jpg"
      },
      "is_mused": false,
      "musers": 0
    },
    {
      "id": 9949,
      "profile_photo_id": null,
      "owner_industry_entity_id": null,
      "owner_industry_member_id": null,
      "type": "photo",
      "resource": "http://mj-files.s3.amazonaws.com/e3cdff7699fef2e88a0c7c43e946bced.jpg",
      "provider": null,
      "name": null,
      "description": "",
      "slug": "1604",
      "is_active": 1,
      "created_at": "08-Oct-2012 6:01am",
      "updated_at": "23-Apr-2013 12:12am",
      "old_id": 277,
      "old_table": "core_photos",
      "play_count": 0,
      "previous_play_count": 0,
      "weight": null,
      "metadata": {
        "creator_id": null,
        "thumb": null
      },
      "profile_photo": null,
      "tags": [],
      "formats": {
        "micro": "http://thumbor.musejam.com/unsafe/100x100/smart/http://mj-files.s3.amazonaws.com/e3cdff7699fef2e88a0c7c43e946bced.jpg",
        "thumb": "http://thumbor.musejam.com/unsafe/250x250/smart/http://mj-files.s3.amazonaws.com/e3cdff7699fef2e88a0c7c43e946bced.jpg",
        "rectangle": "http://thumbor.musejam.com/unsafe/468x181/smart/http://mj-files.s3.amazonaws.com/e3cdff7699fef2e88a0c7c43e946bced.jpg",
        "home-rectangle": "http://thumbor.musejam.com/unsafe/468x250/smart/http://mj-files.s3.amazonaws.com/e3cdff7699fef2e88a0c7c43e946bced.jpg",
        "video-rectangle": "http://thumbor.musejam.com/unsafe/215x170/smart/http://mj-files.s3.amazonaws.com/e3cdff7699fef2e88a0c7c43e946bced.jpg",
        "profile": "http://thumbor.musejam.com/unsafe/300x300/smart/http://mj-files.s3.amazonaws.com/e3cdff7699fef2e88a0c7c43e946bced.jpg",
        "feed-small": "http://thumbor.musejam.com/unsafe/255x255/smart/http://mj-files.s3.amazonaws.com/e3cdff7699fef2e88a0c7c43e946bced.jpg",
        "feed-rectangle": "http://thumbor.musejam.com/unsafe/540x181/smart/http://mj-files.s3.amazonaws.com/e3cdff7699fef2e88a0c7c43e946bced.jpg",
        "mj-feed-artist": "http://thumbor.musejam.com/unsafe/167x167/smart/http://mj-files.s3.amazonaws.com/e3cdff7699fef2e88a0c7c43e946bced.jpg"
      },
      "is_mused": false,
      "musers": 0
    },
    {
      "id": 10207,
      "profile_photo_id": null,
      "owner_industry_entity_id": null,
      "owner_industry_member_id": null,
      "type": "photo",
      "resource": "http://mj-files.s3.amazonaws.com/dc2b68350967943aef0ba25f05745c7a.jpg",
      "provider": null,
      "name": null,
      "description": "",
      "slug": "1861",
      "is_active": null,
      "created_at": "12-Oct-2012 10:04pm",
      "updated_at": "12-Oct-2012 10:43pm",
      "old_id": 537,
      "old_table": "core_photos",
      "play_count": 0,
      "previous_play_count": 0,
      "weight": null,
      "metadata": {
        "creator_id": null,
        "thumb": null
      },
      "profile_photo": null,
      "tags": [],
      "formats": {
        "micro": "http://thumbor.musejam.com/unsafe/100x100/smart/http://mj-files.s3.amazonaws.com/dc2b68350967943aef0ba25f05745c7a.jpg",
        "thumb": "http://thumbor.musejam.com/unsafe/250x250/smart/http://mj-files.s3.amazonaws.com/dc2b68350967943aef0ba25f05745c7a.jpg",
        "rectangle": "http://thumbor.musejam.com/unsafe/468x181/smart/http://mj-files.s3.amazonaws.com/dc2b68350967943aef0ba25f05745c7a.jpg",
        "home-rectangle": "http://thumbor.musejam.com/unsafe/468x250/smart/http://mj-files.s3.amazonaws.com/dc2b68350967943aef0ba25f05745c7a.jpg",
        "video-rectangle": "http://thumbor.musejam.com/unsafe/215x170/smart/http://mj-files.s3.amazonaws.com/dc2b68350967943aef0ba25f05745c7a.jpg",
        "profile": "http://thumbor.musejam.com/unsafe/300x300/smart/http://mj-files.s3.amazonaws.com/dc2b68350967943aef0ba25f05745c7a.jpg",
        "feed-small": "http://thumbor.musejam.com/unsafe/255x255/smart/http://mj-files.s3.amazonaws.com/dc2b68350967943aef0ba25f05745c7a.jpg",
        "feed-rectangle": "http://thumbor.musejam.com/unsafe/540x181/smart/http://mj-files.s3.amazonaws.com/dc2b68350967943aef0ba25f05745c7a.jpg",
        "mj-feed-artist": "http://thumbor.musejam.com/unsafe/167x167/smart/http://mj-files.s3.amazonaws.com/dc2b68350967943aef0ba25f05745c7a.jpg"
      },
      "is_mused": false,
      "musers": 0
    },
    {
      "id": 10243,
      "profile_photo_id": null,
      "owner_industry_entity_id": null,
      "owner_industry_member_id": null,
      "type": "photo",
      "resource": "http://mj-files.s3.amazonaws.com/9e82a8e87c88b429f31a599da45725b8.jpg",
      "provider": null,
      "name": null,
      "description": "",
      "slug": "1897",
      "is_active": null,
      "created_at": "18-Oct-2012 1:26pm",
      "updated_at": "18-Oct-2012 1:26pm",
      "old_id": 575,
      "old_table": "core_photos",
      "play_count": 0,
      "previous_play_count": 0,
      "weight": null,
      "metadata": {
        "creator_id": null,
        "thumb": null
      },
      "profile_photo": null,
      "tags": [],
      "formats": {
        "micro": "http://thumbor.musejam.com/unsafe/100x100/smart/http://mj-files.s3.amazonaws.com/9e82a8e87c88b429f31a599da45725b8.jpg",
        "thumb": "http://thumbor.musejam.com/unsafe/250x250/smart/http://mj-files.s3.amazonaws.com/9e82a8e87c88b429f31a599da45725b8.jpg",
        "rectangle": "http://thumbor.musejam.com/unsafe/468x181/smart/http://mj-files.s3.amazonaws.com/9e82a8e87c88b429f31a599da45725b8.jpg",
        "home-rectangle": "http://thumbor.musejam.com/unsafe/468x250/smart/http://mj-files.s3.amazonaws.com/9e82a8e87c88b429f31a599da45725b8.jpg",
        "video-rectangle": "http://thumbor.musejam.com/unsafe/215x170/smart/http://mj-files.s3.amazonaws.com/9e82a8e87c88b429f31a599da45725b8.jpg",
        "profile": "http://thumbor.musejam.com/unsafe/300x300/smart/http://mj-files.s3.amazonaws.com/9e82a8e87c88b429f31a599da45725b8.jpg",
        "feed-small": "http://thumbor.musejam.com/unsafe/255x255/smart/http://mj-files.s3.amazonaws.com/9e82a8e87c88b429f31a599da45725b8.jpg",
        "feed-rectangle": "http://thumbor.musejam.com/unsafe/540x181/smart/http://mj-files.s3.amazonaws.com/9e82a8e87c88b429f31a599da45725b8.jpg",
        "mj-feed-artist": "http://thumbor.musejam.com/unsafe/167x167/smart/http://mj-files.s3.amazonaws.com/9e82a8e87c88b429f31a599da45725b8.jpg"
      },
      "is_mused": false,
      "musers": 0
    },
    {
      "id": 10260,
      "profile_photo_id": null,
      "owner_industry_entity_id": null,
      "owner_industry_member_id": null,
      "type": "photo",
      "resource": "http://mj-files.s3.amazonaws.com/a92af8f5aebdfc6da3bf86ae68eb01e3.jpg",
      "provider": null,
      "name": null,
      "description": "",
      "slug": "1914",
      "is_active": null,
      "created_at": "01-Nov-2012 8:46pm",
      "updated_at": "01-Nov-2012 8:46pm",
      "old_id": 593,
      "old_table": "core_photos",
      "play_count": 0,
      "previous_play_count": 0,
      "weight": null,
      "metadata": {
        "creator_id": null,
        "thumb": null
      },
      "profile_photo": null,
      "tags": [],
      "formats": {
        "micro": "http://thumbor.musejam.com/unsafe/100x100/smart/http://mj-files.s3.amazonaws.com/a92af8f5aebdfc6da3bf86ae68eb01e3.jpg",
        "thumb": "http://thumbor.musejam.com/unsafe/250x250/smart/http://mj-files.s3.amazonaws.com/a92af8f5aebdfc6da3bf86ae68eb01e3.jpg",
        "rectangle": "http://thumbor.musejam.com/unsafe/468x181/smart/http://mj-files.s3.amazonaws.com/a92af8f5aebdfc6da3bf86ae68eb01e3.jpg",
        "home-rectangle": "http://thumbor.musejam.com/unsafe/468x250/smart/http://mj-files.s3.amazonaws.com/a92af8f5aebdfc6da3bf86ae68eb01e3.jpg",
        "video-rectangle": "http://thumbor.musejam.com/unsafe/215x170/smart/http://mj-files.s3.amazonaws.com/a92af8f5aebdfc6da3bf86ae68eb01e3.jpg",
        "profile": "http://thumbor.musejam.com/unsafe/300x300/smart/http://mj-files.s3.amazonaws.com/a92af8f5aebdfc6da3bf86ae68eb01e3.jpg",
        "feed-small": "http://thumbor.musejam.com/unsafe/255x255/smart/http://mj-files.s3.amazonaws.com/a92af8f5aebdfc6da3bf86ae68eb01e3.jpg",
        "feed-rectangle": "http://thumbor.musejam.com/unsafe/540x181/smart/http://mj-files.s3.amazonaws.com/a92af8f5aebdfc6da3bf86ae68eb01e3.jpg",
        "mj-feed-artist": "http://thumbor.musejam.com/unsafe/167x167/smart/http://mj-files.s3.amazonaws.com/a92af8f5aebdfc6da3bf86ae68eb01e3.jpg"
      },
      "is_mused": false,
      "musers": 0
    },
    {
      "id": 10395,
      "profile_photo_id": null,
      "owner_industry_entity_id": null,
      "owner_industry_member_id": null,
      "type": "photo",
      "resource": "http://mj-files.s3.amazonaws.com/2d565964f1c9c4c8d956b981cabd9770.jpg",
      "provider": null,
      "name": null,
      "description": "",
      "slug": "2049",
      "is_active": null,
      "created_at": "17-Nov-2012 4:18pm",
      "updated_at": "17-Nov-2012 4:18pm",
      "old_id": 729,
      "old_table": "core_photos",
      "play_count": 0,
      "previous_play_count": 0,
      "weight": null,
      "metadata": {
        "creator_id": null,
        "thumb": null
      },
      "profile_photo": null,
      "tags": [],
      "formats": {
        "micro": "http://thumbor.musejam.com/unsafe/100x100/smart/http://mj-files.s3.amazonaws.com/2d565964f1c9c4c8d956b981cabd9770.jpg",
        "thumb": "http://thumbor.musejam.com/unsafe/250x250/smart/http://mj-files.s3.amazonaws.com/2d565964f1c9c4c8d956b981cabd9770.jpg",
        "rectangle": "http://thumbor.musejam.com/unsafe/468x181/smart/http://mj-files.s3.amazonaws.com/2d565964f1c9c4c8d956b981cabd9770.jpg",
        "home-rectangle": "http://thumbor.musejam.com/unsafe/468x250/smart/http://mj-files.s3.amazonaws.com/2d565964f1c9c4c8d956b981cabd9770.jpg",
        "video-rectangle": "http://thumbor.musejam.com/unsafe/215x170/smart/http://mj-files.s3.amazonaws.com/2d565964f1c9c4c8d956b981cabd9770.jpg",
        "profile": "http://thumbor.musejam.com/unsafe/300x300/smart/http://mj-files.s3.amazonaws.com/2d565964f1c9c4c8d956b981cabd9770.jpg",
        "feed-small": "http://thumbor.musejam.com/unsafe/255x255/smart/http://mj-files.s3.amazonaws.com/2d565964f1c9c4c8d956b981cabd9770.jpg",
        "feed-rectangle": "http://thumbor.musejam.com/unsafe/540x181/smart/http://mj-files.s3.amazonaws.com/2d565964f1c9c4c8d956b981cabd9770.jpg",
        "mj-feed-artist": "http://thumbor.musejam.com/unsafe/167x167/smart/http://mj-files.s3.amazonaws.com/2d565964f1c9c4c8d956b981cabd9770.jpg"
      },
      "is_mused": false,
      "musers": 0
    },
    {
      "id": 10396,
      "profile_photo_id": null,
      "owner_industry_entity_id": null,
      "owner_industry_member_id": null,
      "type": "photo",
      "resource": "http://mj-files.s3.amazonaws.com/90cc5c1e954e6aded0c4c50f12486f04.jpg",
      "provider": null,
      "name": null,
      "description": "",
      "slug": "2050",
      "is_active": null,
      "created_at": "17-Nov-2012 4:25pm",
      "updated_at": "17-Nov-2012 4:25pm",
      "old_id": 730,
      "old_table": "core_photos",
      "play_count": 0,
      "previous_play_count": 0,
      "weight": null,
      "metadata": {
        "creator_id": null,
        "thumb": null
      },
      "profile_photo": null,
      "tags": [],
      "formats": {
        "micro": "http://thumbor.musejam.com/unsafe/100x100/smart/http://mj-files.s3.amazonaws.com/90cc5c1e954e6aded0c4c50f12486f04.jpg",
        "thumb": "http://thumbor.musejam.com/unsafe/250x250/smart/http://mj-files.s3.amazonaws.com/90cc5c1e954e6aded0c4c50f12486f04.jpg",
        "rectangle": "http://thumbor.musejam.com/unsafe/468x181/smart/http://mj-files.s3.amazonaws.com/90cc5c1e954e6aded0c4c50f12486f04.jpg",
        "home-rectangle": "http://thumbor.musejam.com/unsafe/468x250/smart/http://mj-files.s3.amazonaws.com/90cc5c1e954e6aded0c4c50f12486f04.jpg",
        "video-rectangle": "http://thumbor.musejam.com/unsafe/215x170/smart/http://mj-files.s3.amazonaws.com/90cc5c1e954e6aded0c4c50f12486f04.jpg",
        "profile": "http://thumbor.musejam.com/unsafe/300x300/smart/http://mj-files.s3.amazonaws.com/90cc5c1e954e6aded0c4c50f12486f04.jpg",
        "feed-small": "http://thumbor.musejam.com/unsafe/255x255/smart/http://mj-files.s3.amazonaws.com/90cc5c1e954e6aded0c4c50f12486f04.jpg",
        "feed-rectangle": "http://thumbor.musejam.com/unsafe/540x181/smart/http://mj-files.s3.amazonaws.com/90cc5c1e954e6aded0c4c50f12486f04.jpg",
        "mj-feed-artist": "http://thumbor.musejam.com/unsafe/167x167/smart/http://mj-files.s3.amazonaws.com/90cc5c1e954e6aded0c4c50f12486f04.jpg"
      },
      "is_mused": false,
      "musers": 0
    }
  ],
  "meta": []
}
